{
  "type": "service_account",
  "project_id": "salvadia-fedb5",
  "private_key_id": "0a3feb7b50139f964659c6006613e2b2c5e659c5",
  "private_key": "-----BEGIN PRIVATE KEY-----\nMIIEvQIBADANBgkqhkiG9w0BAQEFAASCBKcwggSjAgEAAoIBAQC/pzMAIQo41LYL\nuiJV2Qg27qTm9dLko+iJx+TrQnGCbeK5dNyBsBSYGgdnItIppZLSDSX4TF4R6Tni\n8fAGh0rj2YXpRd7eEoHshwGSEKtHsoMxxvGzNzO4/gulBN/Aut0zrxhIMXpWfbFA\nDr0o1JkpGBQMbd/qveWqPbc1dmrMYyVYETJJxwiKfaobfQ+KFs1R7DVSfqMS/Hn5\niXHj70FueVNT0AUr3RDPlcxRcjbpAVzgcSbQQRx7c92q/rmWwphen3+8stvhz/4N\niyH9XFrzz+D4a6CA7OeIbntnqOkPWA1m9XkTFS9DMLLypm6WapRtOACARM5Vb/bJ\nFVxlrFmvAgMBAAECggEABoFCsxYFmZkB3MzVuxtn5ficbDwBWA7s850I4UG0eWLV\nasoGoF6jmrRqqYHkp2xq2upLVNQl7tTlr0hBVCQyn7n58fyT7FTgez2FCVO7gu5F\nYBXw885DcsH2QmsziDOCrCBprvmbvcr79MELUCyqTif2qXCJRLE3vFsZftA+hVVa\nsrCI//2rLmMhf6VR/e5Wo0shlLammfM4RViN6Nb8MmHPqaveHZaQ5JBRCiaMrgJJ\nuBvTsYTCSUFopOpvZJrERtvWzHkwkvdHjIP8y+j6x9MtDdilCvmelr4ndbC/EsXu\n4V3UNg+j9QXZ5fQuyEJZTGigppSFlknepXVw1rlhYQKBgQDoSL/9T/GoGKNzminy\ncQITdZTS2m3X5vV94h5ZaudA6k2fNr8LNyxusTzzpPqTGr3FKMeH9eS1yxT9kdkn\nPwRqkxt+LmPisbZgvXIoCX2jmOcPrIdI/rHscateQ8+32LiR9P8rn3WJUGd+JM7e\n2uKawJAUo2C/eF3W1l3w5rUsVwKBgQDTOHf1P8aOhOvD7VIBJh3p3xWACpFm4oe4\nCGh3GSEzsBZKzJr3q7E479nKKjxjtPi5pUE8da02/sHQ3o7o8+u+es2b94uqOFtu\nYYGOAzmxmaj1RSjU3AOmqk9/NlSpdztxNsWN3fs1o5T9H9Ii/konwp+DXN75mCCE\nqFwwyFHmaQKBgQC4hHHea47vlQLiZehEanjXtGOQS2tOQm1oniK1rTIeYwFeJEMG\nScHF/I0KjlduW6O75nT6D96qerQl6aGyh2CeuFTymy9FeR4DIvp3y3I+bsu9q7Ob\nzJbR2EnlC8EJreKQLyo0IOthNLnBfsPGS+IOREEv48iK0LbaXlcpclsg6QKBgBL+\nH+NAodUM5LpQa7BIwiXWdnN1/88VjYih0OrsqoygR9DgBwtAOAZbouTH2XhJvJfM\n4UnTdwjb7Yefi5As5sTQ/A4LO1bKDIanY+PmLFjo7UVou5wwUG+7HrzcoM5AN2sd\ntrPkAwO2ut3r75RP81ER8g/42N/uqvXiwa9tQ9gJAoGAcDB/V4DNu3BpNkQiADkw\nHkxkupoCfb1qQcLDJIbtagzYs7TFjtmer7botUN21Ju1bnV2hfvxKgmhk2wQLVdb\nOv6UmYKUgJV0CKgRXlHjNBhslC0EsjablA69xg3ui+Zw1NWhu5nboKCTb+F4zlc4\nO4L4Rag3n2txnsdTj1LCf6Y=\n-----END PRIVATE KEY-----\n",
  "client_email": "firebase-adminsdk-79h8x@salvadia-fedb5.iam.gserviceaccount.com",
  "client_id": "112226476162606616791",
  "auth_uri": "https://accounts.google.com/o/oauth2/auth",
  "token_uri": "https://oauth2.googleapis.com/token",
  "auth_provider_x509_cert_url": "https://www.googleapis.com/oauth2/v1/certs",
  "client_x509_cert_url": "https://www.googleapis.com/robot/v1/metadata/x509/firebase-adminsdk-79h8x%40salvadia-fedb5.iam.gserviceaccount.com"
}
